…
``` r
tibble::as_tibble(parts_of_speech(paste0(c(
  "The comm wasn't working. Feeling increasingly ridiculous, he pushed",
  "the button for the 1MC channel several more times. Nothing. He opened",
  "his eyes and saw that all the lights on the panel were out. Then he",
  "turned around and saw that the lights on the refrigerator and the",
  "ovens were out. It wasn’t just the coffeemaker; the entire galley was",
  "in open revolt. Holden looked at the ship name, Rocinante, newly",
  "stenciled onto the galley wall, and said, Baby, why do you hurt me",
  "when I love you so much?"
), collapse = " ")))
## # A tibble: 92 x 2
##    name         tag       
##    <chr>        <chr>     
##  1 The          Determiner
##  2 comm         Noun      
##  3 was          Verb      
##  4 n't          Adverb    
##  5 working      Verb      
##  6 Feeling      Verb      
##  7 increasingly Adverb    
##  8 ridiculous   Adjective 
##  9 he           Pronoun   
## 10 pushed       Verb      
## # … with 82 more rows
```
…
